41.78.145.9:8080 HTTP 2sec
41.78.145.9:8080 HTTP 8sec
61.53.64.37:8080 HTTP 25sec
222.124.218.164:8080 HTTP 25sec
222.88.242.213:9999 HTTP 3sec
218.91.206.146:8001 HTTP 10sec
202.116.1.148:8128 HTTP 17sec
190.0.16.58:8080 HTTP 9sec
41.78.145.9:8080 HTTP 103sec
61.53.64.37:8080 HTTP 6sec
222.124.218.164:8080 HTTP 14sec
189.39.124.54:80 HTTP
222.88.242.213:9999 HTTP 24sec
218.91.206.146:8001 HTTP 10sec
202.116.1.148:8128 HTTP
190.0.16.58:8080 HTTP 18sec
190.128.170.18:8080 HTTP 17sec
119.252.160.34:8080 HTTP
61.153.98.6:8080 HTTP
189.89.170.182:8080 HTTP
109.224.62.197:80 HTTP 17sec
60.51.218.180:8080 HTTP
197.210.255.150:8080 HTTP 19sec
189.113.64.126:8080 HTTP 15sec
1.179.147.2:8080 HTTP
186.238.51.149:8080 HTTP 20sec
200.54.92.187:80 HTTP 11sec
84.42.3.3:3128 HTTP
91.203.140.46:3128 HTTP
212.192.120.67:3128 HTTP 5sec
193.25.120.235:8080 HTTP 23sec
219.154.46.138:8080 HTTP 32sec
101.255.60.162:3128 HTTP 6sec
118.96.31.91:3128 HTTP 39sec
69.50.64.153:3128 HTTP 6sec
82.114.92.33:8080 HTTP 24sec
217.12.113.67:443 HTTP
200.146.84.52:3128 HTTP
187.0.222.167:3128 HTTP
93.123.45.23:8008 HTTP 13sec
113.28.244.195:3128 HTTP 15sec
210.101.131.232:8080 HTTP 4sec
222.83.14.145:3128 HTTP
61.153.236.30:8080 HTTP 5sec
117.41.182.188:8080 HTTP 6sec
221.210.40.150:8080 HTTP 19sec
61.167.49.188:8080 HTTP
222.83.14.142:3128 HTTP
187.60.96.7:3128 HTTP 14sec
190.0.46.66:8080 HTTP 7sec
89.251.103.130:8080 HTTP 11sec
110.139.207.196:8080 HTTP 16sec
186.215.231.211:8080 HTTP 35sec
68.71.76.242:8082 HTTP 48sec
190.121.230.5:8000 HTTP
177.69.195.4:3128 HTTP 15sec
202.106.16.36:3128 HTTP
202.116.1.149:8128 HTTP 19sec
210.22.115.162:3128 HTTP 22sec
61.148.203.62:3128 HTTP
211.142.165.66:8080 HTTP
60.161.14.77:8001 HTTP 15sec
218.108.242.108:3128 HTTP
197.210.252.44:8080 HTTP 32sec
222.66.97.75:8080 HTTP
41.67.2.2:8080 HTTP 24sec
59.172.208.186:8080 HTTP
200.45.51.87:8080 HTTP 12sec
180.247.103.63:8080 HTTP 36sec
190.82.89.155:3128 HTTP 44sec
015-01-01T00:00 HTTP 4sec
013-01-01T00:00 HTTP 5sec
014-01-01T00:00 HTTP
190.82.89.154:3128 HTTP 22sec
187.120.100.70:8080 HTTP 37sec
71.15.31.70:8090 HTTP 31sec
202.79.52.53:3128 HTTP 4sec
203.204.206.176:3128 HTTP 18sec
94.242.209.232:3128 HTTP 6sec
78.133.124.58:8080 HTTP 18sec
65.123.188.156:8080 HTTP 17sec
109.185.116.199:8080 HTTP 16sec
95.211.113.29:3128 HTTP 4sec
195.138.77.24:8080 HTTP 17sec
101.255.44.58:8080 HTTP 32sec
85.12.5.62:8080 HTTP
217.169.215.175:6666 HTTP
179.184.161.254:8080 HTTP 33sec
180.180.121.11:8080 HTTP
187.73.197.16:3129 HTTP 11sec
121.52.159.236:8080 HTTP
201.191.203.242:8080 HTTP
120.203.214.156:80 HTTP 6sec
222.124.219.209:8080 HTTP
84.10.1.42:3128 HTTP 4sec
014-03-03T13:57 HTTP 5sec
190.82.89.154:3128 HTTP 20sec
187.120.100.70:8080 HTTP 35sec
71.15.31.70:8090 HTTP 36sec
202.79.52.53:3128 HTTP 21sec
203.204.206.176:3128 HTTP 4sec
78.133.124.58:8080 HTTP 24sec
65.123.188.156:8080 HTTP 34sec
195.138.77.24:8080 HTTP 34sec
101.255.44.58:8080 HTTP 31sec
85.12.5.62:8080 HTTP 17sec
217.169.215.175:6666 HTTP 187sec
179.184.161.254:8080 HTTP 15sec
198.27.97.214:3127 HTTP
180.180.121.11:8080 HTTP 16sec
187.73.197.16:3129 HTTP
121.52.159.236:8080 HTTP
201.191.203.242:8080 HTTP
120.203.214.156:8022 HTTP
2.124.219.209:8080 HTTP
84.10.1.42:3128 HTTP
181.48.62.75:8080 HTTP 8sec
116.213.51.18:8080 HTTP
187.72.224.67:3129 HTTP 5sec
94.242.224.15:8080 HTTP 50sec
23.226.135.250:8080 HTTP
190.0.245.91:8080 HTTP
94.254.38.8:3128 HTTP 32sec
202.134.118.171:8081 HTTP
5.200.47.67:8080 HTTP
91.121.158.63:3128 HTTP 4sec
95.140.225.30:2080 HTTP
200.170.151.14:8080 HTTP 5sec
146.255.102.221:8080 HTTP
177.69.67.249:3128 HTTP 4sec
177.69.67.250:3128 HTTP 5sec
200.152.102.161:8080 HTTP
190.140.174.245:3128 HTTP
187.32.127.161:3128 HTTP 23sec
177.69.67.247:3128 HTTP 14sec
198.27.97.214:7808 HTTP
203.144.170.99:3128 HTTP 32sec
179.184.157.71:3128 HTTP
77.249.40.94:8080 HTTP 7sec
71.15.31.70:8090 HTTP
65.123.188.156:8080 HTTP 32sec
23.226.229.54:8080 HTTP
54.245.131.132:3128 HTTP 18sec
54.213.219.62:3128 HTTP 32sec
108.9.251.110:4953 HTTP 15sec
123.226.129.31:7808 HTTP 33sec
199.200.120.140:8089 HTTP 4sec
192.227.139.227:8089 HTTP
108.16.204.170:2576 HTTP 34sec
399.52.188.116:5430 HTTP 5sec
950.199.190.97:1654 HTTP 8sec
950.151.246.225:5176 HTTP 16sec
142.196.192.133:2064 HTTP
23.226.129.31:8089 HTTP
85.12.5.62:8080 HTTP
198.27.97.214:3127 HTTP 7sec
190.0.245.91:8080 HTTP
198.27.97.214:7808 HTTP
198.27.97.214:8089 HTTP
162.251.113.10:8089 HTTP 17sec
162.251.113.10:7808 HTTP 34sec
85.185.149.16:8023 HTTP 32sec
252.124.102:7808 HTTP 48sec
136.0.16.217:7808 HTTP
108.9.251.110:4953 HTTP 38sec
123.226.129.31:7808 HTTP 36sec
199.200.120.140:8089 HTTP 5sec
192.227.139.227:8089 HTTP 13sec
210.73.220.18:8088 HTTP 6sec
2.78.139.130:1080 HTTP 34sec
124.67.215.4:8018 HTTP 11sec
7.162.253.250:1080 HTTP
