200.213.113.24:3128 HTTP 1sec
186.90.27.232:8080 HTTP 34sec
168.243.48.106:8080 HTTP 29sec
213.141.155.29:3128 HTTP
119.31.123.203:8080 HTTP
217.74.169.226:8080 HTTP 30sec
200.213.113.24:3128 HTTP
186.90.27.232:8080 HTTP 16sec
168.243.48.106:8080 HTTP 12sec
213.141.155.29:3128 HTTP
119.31.123.203:8080 HTTP
217.74.169.226:8080 HTTP 31sec
119.235.21.12:8080 HTTP 32sec
177.103.176.53:3128 HTTP
179.106.223.27:3128 HTTP
189.112.3.88:3128 HTTP
189.112.3.86:3128 HTTP
189.17.92.147:3128 HTTP
189.112.3.87:3128 HTTP
81.88.24.221:3128 HTTP
87.245.168.115:3128 HTTP
163.17.149.2:3128 HTTP
114.112.91.135:3128 HTTP
114.80.120.53:8080 HTTP
115.124.64.162:3128 HTTP 16sec
115.124.65.166:3128 HTTP 16sec
115.124.76.28:80 HTTP 21sec
115.124.76.29:80 HTTP 32sec
106.187.38.45:3128 HTTP 3sec
107.0.69.189:3128 HTTP 39sec
107.22.183.154:3128 HTTP 47sec
107.7.159.178:3128 HTTP
109.104.144.42:8080 HTTP
109.175.6.192:8080 HTTP 6sec
109.185.116.199:8080 HTTP
200.213.113.24:3128 HTTP 200.213.113.24:31289sec
200.213.113.24:3128 HTTP 200.213.113.24:3128 7 sec
186.90.27.232:8080 HTTP
168.243.48.106:8080 HTTP 168.243.48.106:8080 9 sec
213.141.155.29:3128 HTTP 213.141.155.29:3128 1 sec
95.140.225.30:2080 HTTP 95.140.225.30:2080 0 sec
119.31.123.203:8080 HTTP
217.74.169.226:8080 HTTP 217.74.169.226:8080 47 sec
119.235.21.12:8080 HTTP 119.235.21.12:8080 33 sec
177.103.176.53:3128 HTTP
179.106.223.27:3128 HTTP
189.112.3.88:3128 HTTP
189.112.3.86:3128 HTTP
189.17.92.147:3128 HTTP
189.112.3.87:3128 HTTP
81.88.24.221:3128 HTTP
87.245.168.115:3128 HTTP
163.17.149.2:3128 HTTP
114.112.91.135:3128 HTTP 114.112.91.135:3128 10 sec
114.80.120.53:8080 HTTP 114.80.120.53:8080 10 sec
115.124.64.162:3128 HTTP 115.124.64.162:3128 50 sec
115.124.65.166:3128 HTTP 115.124.65.166:3128 32 sec
115.124.76.28:80 HTTP 115.124.76.28:80 21 sec
115.124.76.29:80 HTTP 115.124.76.29:80 24 sec
106.187.38.45:3128 HTTP 106.187.38.45:3128 1 sec
107.0.69.189:3128 HTTP 107.0.69.189:3128 16 sec
107.22.183.154:3128 HTTP 107.22.183.154:3128 21 sec
107.7.159.178:3128 HTTP 107.7.159.178:3128 3 sec
109.104.144.42:8080 HTTP 109.104.144.42:8080 33 sec
109.175.6.192:8080 HTTP
109.185.116.199:8080 HTTP
172.245.20.168:3128 HTTP 172.245.20.168:3128 4 sec
172.245.20.174:3128 HTTP 172.245.20.174:3128 10 sec
172.245.20.175:3128 HTTP
172.245.20.203:3128 HTTP 172.245.20.203:3128 14 sec
172.245.20.217:3128 HTTP 172.245.20.217:3128 12 sec
172.245.20.240:3128 HTTP 172.245.20.240:3128 12 sec
172.245.20.251:3128 HTTP 172.245.20.251:3128 4 sec
110.77.136.102:3128 HTTP 110.77.136.102:3128 34 sec
110.77.149.146:8080 HTTP 110.77.149.146:8080 23 sec
110.77.212.221:8080 HTTP
110.77.228.152:3128 HTTP 110.77.228.152:3128 16 sec
110.77.239.41:3128 HTTP
111.119.192.34:8080 HTTP 111.119.192.34:8080 8 sec
112.124.39.165:3128 HTTP 112.124.39.165:3128 38 sec
168.63.150.60:3128 HTTP 168.63.150.60:3128 32 sec
175.136.192.5:8080 HTTP
175.139.210.84:3128 HTTP 175.139.210.84:3128 41 sec
175.45.191.67:8080 HTTP
176.215.1.224:3128 HTTP
176.31.99.48:3128 HTTP 176.31.99.48:3128 2 sec
177.107.97.245:8080 HTTP 177.107.97.245:8080 3 sec
177.124.60.91:3128 HTTP 177.124.60.91:3128 8 sec
177.126.89.18:3128 HTTP
46.21.240.253:3128 HTTP 46.21.240.253:3128 18 sec
91.121.158.63:3128 HTTP
188.165.85.115:3128 HTTP
115.124.65.166:3128 HTTP 115.124.65.166:3128 18 sec
188.136.216.129:8080 HTTP
81.198.230.182:8080 HTTP 81.198.230.182:8080 3 sec
193.194.79.182:3128 HTTP
202.171.253.111:80 HTTP
178.208.255.123:3128 HTTP
213.122.178.99:8080 HTTP 213.122.178.99:8080 3 sec
110.77.136.102:3128 HTTP 110.77.136.102:3128 33 sec
62.122.100.90:8080 HTTP 62.122.100.90:8080 3 sec
78.63.218.138:3128 HTTP 78.63.218.138:3128 31 sec
69.50.64.153:3128 HTTP
116.93.58.1:8118 HTTP 116.93.58.1:8118 8 sec
207.5.112.114:8080 HTTP 207.5.112.114:8080 10 sec
84.50.44.92:3128 HTTP 84.50.44.92:3128 5 sec
74.53.15.140:3129 HTTP
5.63.157.14:3128 HTTP 5.63.157.14:3128 1 sec
62.152.59.126:8081 HTTP
82.187.108.146:8082 HTTP 82.187.108.146:8082 15 sec
81.94.203.74:80 HTTP
89.16.175.100:8080 HTTP
91.121.162.45:3128 HTTP 91.121.162.45:3128 19 sec
78.130.201.110:8080 HTTP 78.130.201.110:8080 4 sec
176.31.241.53:3128 HTTP 176.31.241.53:3128 6 sec
115.124.64.162:3128 HTTP 115.124.64.162:3128 31 sec
1.179.147.2:8080 HTTP 1.179.147.2:8080 16 sec
88.191.155.230:8888 HTTP 88.191.155.230:8888 0 sec
85.135.52.30:8080 HTTP 85.135.52.30:8080 6 sec
91.121.136.186:9999 HTTP 91.121.136.186:9999 4 sec
177.103.139.64:3128 HTTP 177.103.139.64:3128 23 sec
210.57.214.98:80 HTTP 210.57.214.98:80 3 sec
202.98.123.126:8080 HTTP 202.98.123.126:8080 8 sec
203.93.104.20:80 HTTP
116.228.55.217:80 HTTP 116.228.55.217:80 13 sec
111.1.32.51:8088 HTTP
111.1.55.19:8080 HTTP
180.169.125.49:8888 HTTP
176.194.189.56:8080 HTTP 176.194.189.56:8080 5 sec
46.50.175.146:3128 HTTP
201.76.172.110:8080 HTTP 201.76.172.110:8080 35 sec
203.186.109.21:80 HTTP
200.195.141.178:8080 HTTP
222.74.98.234:8080 HTTP 222.74.98.234:8080 19 sec
111.1.55.19:8088 HTTP
113.108.92.104:80 HTTP 113.108.92.104:80 24 sec
217.169.209.2:6666 HTTP
111.1.55.19:8089 HTTP
118.97.95.174:80 HTTP 118.97.95.174:80 2 sec
222.255.27.211:3128 HTTP 222.255.27.211:3128 14 sec
116.112.66.102:808 HTTP 116.112.66.102:808 3 sec
192.3.25.99:3127 HTTP 192.3.25.99:3127 2 sec
192.3.25.99:7808 HTTP 192.3.25.99:7808 1 sec
192.3.25.99:8089 HTTP
221.176.14.72:80 HTTP
116.228.55.217:8003 HTTP 116.228.55.217:8003 15 sec
94.198.34.230:8080 HTTP 94.198.34.230:8080 9 sec
91.203.140.46:3128 HTTP 91.203.140.46:3128 0 sec
81.198.230.182:8080 HTTP 81.198.230.182:8080 2 sec
82.114.92.33:8080 HTTP
61.153.98.6:8080 HTTP
118.97.243.2:3128 HTTP 118.97.243.2:3128 5 sec
46.105.42.93:3128 HTTP 46.105.42.93:3128 7 sec
190.0.46.66:8080 HTTP
119.2.49.227:80 HTTP 119.2.49.227:80 9 sec
202.143.185.107:8080 HTTP
101.255.93.38:9876 HTTP 101.255.93.38:9876 6 sec
113.107.43.75:818 HTTP
89.251.103.130:8080 HTTP
210.57.214.98:3128 HTTP 210.57.214.98:3128 2 sec
118.97.95.174:8080 HTTP 118.97.95.174:8080 4 sec
114.141.162.53:8080 HTTP 114.141.162.53:8080 10 sec
116.228.55.217:8000 HTTP 116.228.55.217:8000 9 sec
101.66.251.72:8010 HTTP 101.66.251.72:8010 5 sec
1.66.251.72:8080 HTTP
103.8.221.253:8080 HTTP 103.8.221.253:8080 5 sec
106.120.108.163:3128 HTTP 106.120.108.163:3128 8 sec
106.187.38.45:3128 HTTP 106.187.38.45:3128 7 sec
106.37.177.251:3128 HTTP 106.37.177.251:3128 14 sec
110.208.25.240:9000 HTTP
110.208.25.42:9000 HTTP 110.208.25.42:9000 33 sec
110.208.25.44:9000 HTTP 110.208.25.44:9000 12 sec
110.208.26.123:9000 HTTP
110.208.27.112:9000 HTTP
110.208.27.114:9000 HTTP
110.208.27.60:9000 HTTP 110.208.27.60:9000 17 sec
110.208.27.75:9000 HTTP 110.208.27.75:9000 4 sec
110.211.41.74:9000 HTTP 110.211.41.74:9000 34 sec
110.211.42.22:9000 HTTP
111.1.36.163:8011 HTTP 111.1.36.163:8011 53 sec
1.1.36.165:8011 HTTP
1.1.36.166:8011 HTTP 1.1.36.166:8011 39 sec
1.1.36.166:8111 HTTP 1.1.36.166:8111 48 sec
1.1.36.166:8211 HTTP 1.1.36.166:8211 68 sec
1.1.36.166:8311 HTTP
1.1.36.166:8411 HTTP 1.1.36.166:8411 42 sec
1.161.126.83:8080 HTTP 1.161.126.83:8080 34 sec
111.161.126.84:8011 HTTP 111.161.126.84:8011 7 sec
1.161.126.85:8011 HTTP 1.161.126.85:8011 6 sec
1.161.126.87:8080 HTTP
111.161.126.88:8080 HTTP 111.161.126.88:8080 31 sec
111.161.126.89:8080 HTTP 111.161.126.89:8080 23 sec
111.161.126.90:8080 HTTP 111.161.126.90:8080 58 sec
111.161.126.91:8080 HTTP 111.161.126.91:8080 17 sec
111.161.126.92:8080 HTTP 111.161.126.92:8080 5 sec
111.161.126.93:8080 HTTP
111.206.81.248:8011 HTTP
1.47.92.226:8080 HTTP 1.47.92.226:8080 17 sec
111.8.55.74:8011 HTTP 111.8.55.74:8011 8 sec
2.65.19.122:8080 HTTP 2.65.19.122:8080 3 sec
112.93.248.48:9000 HTTP 112.93.248.48:9000 63 sec
112.93.249.97:8080 HTTP
112.93.253.73:8080 HTTP
112.95.167.69:3128 HTTP 112.95.167.69:3128 28 sec
113.57.230.83:8011 HTTP 113.57.230.83:8011 16 sec
3.57.252.103:8011 HTTP 3.57.252.103:8011 46 sec
3.57.252.105:8011 HTTP 3.57.252.105:8011 49 sec
3.57.252.106:8011 HTTP
3.57.252.107:8011 HTTP 3.57.252.107:8011 26 sec
3.78.190.30:1111 HTTP 3.78.190.30:1111 15 sec
114.112.63.117:3128 HTTP 114.112.63.117:3128 1 sec
114.66.219.90:8080 HTTP 114.66.219.90:8080 20 sec
114.80.120.53:8080 HTTP 114.80.120.53:8080 5 sec
114.85.227.104:8080 HTTP 114.85.227.104:8080 23 sec
115.236.185.230:8088 HTTP
115.238.164.208:8080 HTTP 115.238.164.208:8080 6 sec
115.238.191.146:3128 HTTP
115.29.162.122:3128 HTTP 115.29.162.122:3128 5 sec
115.29.184.63:3128 HTTP
116.226.45.176:8080 HTTP
116.25.253.205:9999 HTTP 116.25.253.205:9999 16 sec
116.252.253.121:8080 HTTP
117.121.17.104:8080 HTTP 117.121.17.104:8080 2 sec
117.141.115.141:8080 HTTP
117.27.155.107:8088 HTTP 117.27.155.107:8088 13 sec
117.36.231.239:9999 HTTP 117.36.231.239:9999 22 sec
117.36.50.52:3128 HTTP 117.36.50.52:3128 4 sec
117.40.160.45:3128 HTTP 117.40.160.45:3128 8 sec
117.41.182.188:8080 HTTP 117.41.182.188:8080 16 sec
117.59.224.58:8011 HTTP 117.59.224.58:8011 49 sec
7.59.224.60:8011 HTTP 7.59.224.60:8011 16 sec
7.59.224.61:8011 HTTP 7.59.224.61:8011 17 sec
7.59.224.62:8011 HTTP 7.59.224.62:8011 16 sec
8.114.77.116:8080 HTTP
118.122.94.105:8080 HTTP 118.122.94.105:8080 7 sec
118.244.193.172:3128 HTTP 118.244.193.172:3128 3 sec
119.145.141.98:9999 HTTP
119.161.132.195:3128 HTTP 119.161.132.195:3128 5 sec
119.186.160.86:8000 HTTP
119.53.51.190:8088 HTTP 119.53.51.190:8088 53 sec
119.97.146.16:8011 HTTP 119.97.146.16:8011 2 sec
9.97.146.16:8080 HTTP 9.97.146.16:8080 31 sec
120.193.17.162:8888 HTTP 120.193.17.162:8888 3 sec
120.194.55.100:8080 HTTP 120.194.55.100:8080 2 sec
120.203.214.156:8012 HTTP 120.203.214.156:8012 1 sec
0.203.214.156:9090 HTTP
120.203.214.161:8012 HTTP 120.203.214.161:8012 2 sec
0.203.214.161:9090 HTTP 0.203.214.161:9090 4 sec
120.203.214.162:8012 HTTP 120.203.214.162:8012 6 sec
0.203.214.184:8012 HTTP 0.203.214.184:8012 2 sec
0.203.214.184:9090 HTTP
120.203.214.187:8012 HTTP 120.203.214.187:8012 4 sec
0.203.214.187:9090 HTTP 0.203.214.187:9090 3 sec
120.237.12.220:8080 HTTP 120.237.12.220:8080 10 sec
120.84.238.33:8080 HTTP 120.84.238.33:8080 16 sec
120.84.238.91:8080 HTTP
120.84.239.243:8080 HTTP
121.11.167.246:9999 HTTP
121.12.166.145:8080 HTTP 121.12.166.145:8080 13 sec
121.12.167.197:3128 HTTP 121.12.167.197:3128 3 sec
121.13.217.242:9999 HTTP 121.13.217.242:9999 4 sec
121.15.15.196:3128 HTTP 121.15.15.196:3128 4 sec
121.33.222.228:9999 HTTP
121.35.232.6:9000 HTTP 121.35.232.6:9000 34 sec
121.49.121.250:3128 HTTP 121.49.121.250:3128 34 sec
121.52.231.230:8088 HTTP
121.9.231.82:9999 HTTP 121.9.231.82:9999 5 sec
122.112.4.132:8012 HTTP
2.112.4.132:8080 HTTP
122.136.46.151:3128 HTTP
122.136.46.151:8012 HTTP 122.136.46.151:8012 7 sec
2.144.130.11:3128 HTTP 2.144.130.11:3128 39 sec
122.200.90.172:3128 HTTP
122.226.122.201:8080 HTTP
122.226.73.248:8012 HTTP 122.226.73.248:8012 1 sec
2.226.73.248:8080 HTTP 2.226.73.248:8080 17 sec
122.227.164.124:8118 HTTP
122.227.164.15:8118 HTTP 122.227.164.15:8118 1 sec
122.227.228.118:8118 HTTP
123.103.58.60:3128 HTTP 123.103.58.60:3128 42 sec
123.117.84.40:9000 HTTP 123.117.84.40:9000 16 sec
123.117.88.138:9000 HTTP 123.117.88.138:9000 50 sec
123.117.91.122:9000 HTTP
123.129.240.172:8081 HTTP
123.129.240.173:8081 HTTP
123.129.240.174:8081 HTTP 123.129.240.174:8081 29 sec
123.129.240.175:8081 HTTP 123.129.240.175:8081 34 sec
123.129.240.176:8081 HTTP 123.129.240.176:8081 36 sec
123.13.226.56:9999 HTTP 123.13.226.56:9999 16 sec
123.13.227.54:9000 HTTP 123.13.227.54:9000 23 sec
123.138.153.21:3128 HTTP 123.138.153.21:3128 43 sec
123.138.68.170:9000 HTTP
123.183.220.126:8012 HTTP 123.183.220.126:8012 2 sec
3.7.78.176:9999 HTTP 3.7.78.176:9999 19 sec
124.133.232.26:3128 HTTP 124.133.232.26:3128 25 sec
124.161.160.175:8080 HTTP
124.162.168.182:8080 HTTP 124.162.168.182:8080 30 sec
124.192.71.231:3128 HTTP
124.207.119.234:8012 HTTP 124.207.119.234:8012 15 sec
4.207.82.166:8018 HTTP 4.207.82.166:8018 16 sec
124.225.52.14:8080 HTTP
124.235.181.10:9000 HTTP 124.235.181.10:9000 1 sec
124.237.91.29:9999 HTTP 124.237.91.29:9999 3 sec
124.47.57.2:9000 HTTP 124.47.57.2:9000 30 sec
124.78.81.53:8080 HTTP 124.78.81.53:8080 16 sec
125.32.86.29:8080 HTTP 125.32.86.29:8080 3 sec
125.46.94.66:8080 HTTP 125.46.94.66:8080 33 sec
125.66.140.230:8080 HTTP
125.93.77.125:3128 HTTP 125.93.77.125:3128 9 sec
139.210.98.86:8080 HTTP
14.156.151.72:9000 HTTP
14.18.17.166:8015 HTTP 14.18.17.166:8015 5 sec
9.226.61.60:3128 HTTP 9.226.61.60:3128 17 sec
163.125.100.171:9999 HTTP 163.125.100.171:9999 30 sec
163.125.101.200:9999 HTTP 163.125.101.200:9999 26 sec
163.125.103.160:9999 HTTP 163.125.103.160:9999 31 sec
163.125.103.168:9999 HTTP 163.125.103.168:9999 11 sec
163.125.103.175:9999 HTTP 163.125.103.175:9999 31 sec
163.125.105.126:9999 HTTP 163.125.105.126:9999 31 sec
163.125.105.201:9999 HTTP
163.125.105.236:9999 HTTP
163.125.105.5:9999 HTTP 163.125.105.5:9999 31 sec
163.125.105.61:9999 HTTP 163.125.105.61:9999 5 sec
163.125.198.136:9000 HTTP
163.125.198.146:9000 HTTP 163.125.198.146:9000 16 sec
163.125.205.42:9999 HTTP 163.125.205.42:9999 31 sec
166.111.72.71:3128 HTTP 166.111.72.71:3128 32 sec
171.15.255.3:8080 HTTP 171.15.255.3:8080 15 sec
180.173.85.204:8080 HTTP 180.173.85.204:8080 3 sec
182.18.6.89:8080 HTTP
182.48.107.219:9000 HTTP 182.48.107.219:9000 13 sec
183.129.244.4:3128 HTTP
183.151.143.42:8080 HTTP
183.207.228.114:8018 HTTP 183.207.228.114:8018 7 sec
3.207.228.116:8018 HTTP 3.207.228.116:8018 18 sec
3.207.228.118:8018 HTTP 3.207.228.118:8018 30 sec
3.207.228.120:8018 HTTP 3.207.228.120:8018 31 sec
3.207.228.121:8018 HTTP
3.207.228.122:8018 HTTP 3.207.228.122:8018 36 sec
3.207.228.123:8018 HTTP
3.207.228.124:8018 HTTP 3.207.228.124:8018 18 sec
3.207.228.19:8018 HTTP 3.207.228.19:8018 31 sec
3.238.33.247:3128 HTTP 3.238.33.247:3128 16 sec
183.238.55.236:8018 HTTP 183.238.55.236:8018 4 sec
3.62.172.50:9999 HTTP 3.62.172.50:9999 49 sec
183.63.130.218:9999 HTTP
183.63.131.18:9999 HTTP 183.63.131.18:9999 16 sec
183.63.149.110:3128 HTTP
183.63.81.66:9999 HTTP 183.63.81.66:9999 2 sec
202.101.96.154:8888 HTTP
202.106.16.36:3128 HTTP 202.106.16.36:3128 4 sec
202.107.231.153:8020 HTTP 202.107.231.153:8020 15 sec
2.107.231.153:8088 HTTP 2.107.231.153:8088 46 sec
202.110.74.245:9000 HTTP
202.116.1.148:8128 HTTP
202.116.1.149:8128 HTTP 202.116.1.149:8128 2 sec
202.197.66.28:3128 HTTP 202.197.66.28:3128 44 sec
202.199.160.158:3128 HTTP
202.85.214.196:3128 HTTP
202.98.1.218:8080 HTTP
202.99.244.209:9999 HTTP 202.99.244.209:9999 31 sec
203.86.16.249:8080 HTTP
210.14.79.178:3128 HTTP 210.14.79.178:3128 2 sec
210.22.115.162:3128 HTTP 210.22.115.162:3128 33 sec
210.51.23.91:8221 HTTP 210.51.23.91:8221 3 sec
0.51.3.42:8080 HTTP 0.51.3.42:8080 2 sec
210.82.92.77:3128 HTTP 210.82.92.77:3128 90 sec
211.101.172.202:8080 HTTP 211.101.172.202:8080 41 sec
211.144.76.58:9000 HTTP 211.144.76.58:9000 20 sec
218.104.118.54:8080 HTTP 218.104.118.54:8080 4 sec
218.108.149.34:9999 HTTP
218.108.242.108:3128 HTTP 218.108.242.108:3128 37 sec
218.11.109.126:9999 HTTP 218.11.109.126:9999 15 sec
218.18.131.125:9000 HTTP 218.18.131.125:9000 33 sec
218.18.134.83:9000 HTTP 218.18.134.83:9000 18 sec
218.18.34.22:9000 HTTP 218.18.34.22:9000 2 sec
218.18.36.3:9000 HTTP 218.18.36.3:9000 32 sec
218.18.39.64:9000 HTTP 218.18.39.64:9000 16 sec
218.18.49.115:9000 HTTP 218.18.49.115:9000 34 sec
218.203.170.42:8080 HTTP
218.203.54.8:8021 HTTP
8.204.52.138:9000 HTTP 8.204.52.138:9000 17 sec
218.207.83.141:3128 HTTP
218.24.166.79:3128 HTTP
218.28.119.90:1982 HTTP 218.28.119.90:1982 34 sec
218.28.179.74:8080 HTTP 218.28.179.74:8080 14 sec
218.28.237.242:8080 HTTP 218.28.237.242:8080 33 sec
218.28.79.198:9999 HTTP 218.28.79.198:9999 34 sec
218.29.154.50:8000 HTTP 218.29.154.50:8000 27 sec
218.29.90.30:9999 HTTP 218.29.90.30:9999 42 sec
218.3.166.134:8080 HTTP 218.3.166.134:8080 9 sec
218.57.110.154:8080 HTTP 218.57.110.154:8080 45 sec
218.58.52.110:9999 HTTP
218.80.232.38:8080 HTTP
218.87.111.115:8080 HTTP 218.87.111.115:8080 12 sec
218.9.69.2:8080 HTTP
218.91.206.146:8001 HTTP
218.93.112.72:3128 HTTP
218.95.37.121:8021 HTTP 218.95.37.121:8021 2 sec
9.135.189.90:8021 HTTP 9.135.189.90:8021 48 sec
9.135.189.90:8080 HTTP 9.135.189.90:8080 33 sec
219.141.189.61:3128 HTTP 219.141.189.61:3128 3 sec
219.143.207.140:3128 HTTP
219.146.2.105:2321 HTTP
9.147.19.86:9999 HTTP 9.147.19.86:9999 19 sec
219.150.185.121:8080 HTTP
219.150.242.10:9999 HTTP
219.150.242.194:9999 HTTP
219.150.242.54:9999 HTTP 219.150.242.54:9999 5 sec
219.154.46.138:8080 HTTP 219.154.46.138:8080 18 sec
219.159.198.8:9999 HTTP 219.159.198.8:9999 10 sec
219.159.198.81:9999 HTTP 219.159.198.81:9999 24 sec
219.159.199.6:9999 HTTP 219.159.199.6:9999 15 sec
219.223.192.21:3128 HTTP 219.223.192.21:3128 33 sec
220.113.1.73:9000 HTTP
220.162.237.125:8122 HTTP 220.162.237.125:8122 34 sec
0.181.151.9:8080 HTTP 0.181.151.9:8080 4 sec
220.181.160.144:8022 HTTP
0.181.161.144:8022 HTTP
0.181.161.168:8022 HTTP 0.181.161.168:8022 1 sec
0.181.181.26:8022 HTTP 0.181.181.26:8022 1 sec
1.122.79.51:3128 HTTP 1.122.79.51:3128 17 sec
221.122.79.52:3128 HTTP 221.122.79.52:3128 47 sec
221.172.136.158:9000 HTTP 221.172.136.158:9000 34 sec
221.172.137.112:9000 HTTP 221.172.137.112:9000 31 sec
221.176.189.14:8080 HTTP
221.181.104.10:8080 HTTP 221.181.104.10:8080 6 sec
221.181.104.11:8080 HTTP 221.181.104.11:8080 2 sec
221.181.104.12:8080 HTTP 221.181.104.12:8080 3 sec
221.182.62.114:9999 HTTP
221.182.62.115:9999 HTTP 221.182.62.115:9999 3 sec
221.192.134.91:8081 HTTP 221.192.134.91:8081 18 sec
221.193.207.174:9999 HTTP
221.2.228.202:9000 HTTP
221.2.80.126:8888 HTTP
221.210.40.150:8080 HTTP 221.210.40.150:8080 34 sec
221.210.5.30:8080 HTTP 221.210.5.30:8080 34 sec
221.215.173.78:9999 HTTP
221.226.10.110:8080 HTTP
221.229.252.98:8080 HTTP
221.231.139.140:3128 HTTP 221.231.139.140:3128 5 sec
221.4.134.230:9000 HTTP
221.4.134.231:9000 HTTP
221.6.85.155:3128 HTTP
222.128.173.118:9000 HTTP 222.128.173.118:9000 16 sec
222.132.11.6:8080 HTTP 222.132.11.6:8080 32 sec
222.132.29.10:8080 HTTP
222.169.193.34:3129 HTTP
222.171.28.117:3128 HTTP 222.171.28.117:3128 1 sec
222.174.27.166:8080 HTTP 222.174.27.166:8080 11 sec
222.179.234.110:9999 HTTP 222.179.234.110:9999 26 sec
222.180.173.12:8080 HTTP
222.180.84.150:9999 HTTP 222.180.84.150:9999 5 sec
222.180.84.61:9999 HTTP 222.180.84.61:9999 5 sec
222.218.152.36:9999 HTTP
222.218.157.121:9999 HTTP 222.218.157.121:9999 31 sec
222.218.157.23:9999 HTTP 222.218.157.23:9999 2 sec
222.222.251.129:9999 HTTP 222.222.251.129:9999 8 sec
222.222.251.98:9999 HTTP
222.240.213.196:9999 HTTP
222.243.89.147:8080 HTTP 222.243.89.147:8080 4 sec
222.66.97.75:8080 HTTP
222.73.165.25:8080 HTTP
222.74.224.79:3128 HTTP
222.74.98.234:8080 HTTP 222.74.98.234:8080 4 sec
222.83.14.142:3128 HTTP
222.83.14.144:3128 HTTP
222.88.240.140:9999 HTTP
222.88.242.213:9999 HTTP
222.89.159.69:9000 HTTP 222.89.159.69:9000 5 sec
223.4.168.234:3128 HTTP 223.4.168.234:3128 8 sec
27.115.18.18:8080 HTTP 27.115.18.18:8080 21 sec
27.38.228.83:9000 HTTP 27.38.228.83:9000 32 sec
27.46.10.152:8888 HTTP 27.46.10.152:8888 34 sec
27.46.20.63:9999 HTTP 27.46.20.63:9999 32 sec
27.46.20.71:9999 HTTP
42.120.22.25:3128 HTTP
42.62.41.228:3128 HTTP 42.62.41.228:3128 10 sec
42.62.41.229:3128 HTTP 42.62.41.229:3128 22 sec
49.140.107.217:3128 HTTP 49.140.107.217:3128 3 sec
58.20.230.242:8080 HTTP
58.215.52.141:8080 HTTP 58.215.52.141:8080 5 sec
58.215.52.142:8080 HTTP 58.215.52.142:8080 7 sec
58.215.52.144:8080 HTTP 58.215.52.144:8080 3 sec
58.215.52.146:8080 HTTP 58.215.52.146:8080 4 sec
58.215.52.147:8080 HTTP
58.215.52.152:8080 HTTP 58.215.52.152:8080 3 sec
58.215.52.155:8080 HTTP 58.215.52.155:8080 24 sec
58.215.52.156:8080 HTTP
58.215.52.157:8080 HTTP
58.215.52.159:8080 HTTP
58.215.52.179:8080 HTTP 58.215.52.179:8080 3 sec
58.215.52.226:8080 HTTP 58.215.52.226:8080 8 sec
58.216.228.11:4435 HTTP 58.216.228.11:4435 10 sec
8.23.15.20:8080 HTTP 8.23.15.20:8080 50 sec
58.251.45.227:9999 HTTP
58.252.1.29:8080 HTTP
59.172.208.190:8080 HTTP 59.172.208.190:8080 14 sec
59.44.220.130:8080 HTTP 59.44.220.130:8080 2 sec
59.46.162.29:8080 HTTP 59.46.162.29:8080 7 sec
59.46.220.214:9000 HTTP 59.46.220.214:9000 5 sec
59.46.72.247:8080 HTTP
59.49.216.141:8080 HTTP 59.49.216.141:8080 36 sec
60.161.14.77:8001 HTTP 60.161.14.77:8001 17 sec
60.191.178.130:8080 HTTP 60.191.178.130:8080 17 sec
60.21.136.22:8080 HTTP
60.22.80.5:3128 HTTP
60.221.253.204:8060 HTTP 60.221.253.204:8060 37 sec
223.241.92:9999 HTTP 223.241.92:9999 16 sec
60.28.29.37:3128 HTTP 60.28.29.37:3128 12 sec
60.31.206.40:8080 HTTP 60.31.206.40:8080 20 sec
60.31.206.42:8080 HTTP 60.31.206.42:8080 33 sec
60.5.156.176:9999 HTTP 60.5.156.176:9999 34 sec
61.131.64.126:3128 HTTP
61.134.38.42:7280 HTTP
61.134.62.118:8080 HTTP 61.134.62.118:8080 10 sec
61.135.151.122:8061 HTTP 61.135.151.122:8061 15 sec
143.248.100:1120 HTTP 143.248.100:1120 4 sec
61.144.48.169:3128 HTTP 61.144.48.169:3128 10 sec
61.148.10.18:8080 HTTP 61.148.10.18:8080 17 sec
61.153.236.30:8061 HTTP 61.153.236.30:8061 4 sec
153.98.6:8080 HTTP 153.98.6:8080 30 sec
61.158.168.237:9999 HTTP
61.158.219.226:8118 HTTP 61.158.219.226:8118 51 sec
61.160.108.115:8080 HTTP 61.160.108.115:8080 49 sec
61.163.106.38:8080 HTTP
61.163.163.145:9999 HTTP
61.163.165.165:9999 HTTP 61.163.165.165:9999 44 sec
61.163.165.250:9999 HTTP 61.163.165.250:9999 21 sec
61.163.231.212:9999 HTTP
61.163.236.158:9999 HTTP 61.163.236.158:9999 18 sec
61.181.131.102:9999 HTTP 61.181.131.102:9999 1 sec
61.53.64.37:8080 HTTP
61.54.221.200:3128 HTTP
014-03-11T07:38 HTTP 014-03-11T07:38 4 sec
115.124.64.162:3128 HTTP 115.124.64.162:3128 16 sec
202.171.253.84:8637 HTTP 202.171.253.84:8637 1 sec
247.100.164:3128 HTTP 247.100.164:3128 20 sec
213.122.178.99:8180 HTTP
31.47.37.45:8080 HTTP
180.250.165.205:8080 HTTP
189.85.29.98:8080 HTTP
78.109.137.225:3128 HTTP 78.109.137.225:3128 17 sec
200.170.151.14:8080 HTTP 200.170.151.14:8080 18 sec
200.178.116.82:3128 HTTP 200.178.116.82:3128 3 sec
118.97.32.226:8080 HTTP 118.97.32.226:8080 7 sec
106.187.38.45:3128 HTTP
202.75.22.10:3128 HTTP 202.75.22.10:3128 33 sec
37.236.167.250:8095 HTTP
211.113.29:3128 HTTP
190.214.41.91:8080 HTTP 190.214.41.91:8080 3 sec
190.111.122.70:3128 HTTP 190.111.122.70:3128 4 sec
187.125.147.178:3128 HTTP 187.125.147.178:3128 11 sec
149.255.6.67:8080 HTTP 149.255.6.67:8080 35 sec
213.141.155.29:3128 HTTP 213.141.155.29:3128 1 sec
46.185.49.192:8080 HTTP
