Status: 200.213.113.24:3128 HTTP
lMilliseconds: 16
arg_max_timeout: 0
Status: 186.90.27.232:8080 HTTP 16sec
lMilliseconds: 12
arg_max_timeout: 0
Status: 168.243.48.106:8080 HTTP 12sec
Status: 213.141.155.29:3128 HTTP
lMilliseconds: 0
arg_max_timeout: 0
Status: 95.140.225.30:2080 disabled
Status: 119.31.123.203:8080 HTTP
lMilliseconds: 31
arg_max_timeout: 0
Status: 217.74.169.226:8080 HTTP 31sec
lMilliseconds: 32
arg_max_timeout: 0
Status: 119.235.21.12:8080 HTTP 32sec
Status: 177.103.176.53:3128 HTTP
Status: 179.106.223.27:3128 HTTP
Status: 189.112.3.88:3128 HTTP
Status: 189.112.3.86:3128 HTTP
Status: 189.17.92.147:3128 HTTP
Status: 189.112.3.87:3128 HTTP
Status: 81.88.24.221:3128 HTTP
Status: 87.245.168.115:3128 HTTP
Status: 163.17.149.2:3128 HTTP
Status: 114.112.91.135:3128 HTTP
Status: 114.80.120.53:8080 HTTP
lMilliseconds: 16
arg_max_timeout: 0
Status: 115.124.64.162:3128 HTTP 16sec
lMilliseconds: 16
arg_max_timeout: 0
Status: 115.124.65.166:3128 HTTP 16sec
lMilliseconds: 21
arg_max_timeout: 0
Status: 115.124.76.28:80 HTTP 21sec
lMilliseconds: 32
arg_max_timeout: 0
Status: 115.124.76.29:80 HTTP 32sec
lMilliseconds: 3
arg_max_timeout: 0
Status: 106.187.38.45:3128 HTTP 3sec
lMilliseconds: 39
arg_max_timeout: 0
Status: 107.0.69.189:3128 HTTP 39sec
lMilliseconds: 47
arg_max_timeout: 0
Status: 107.22.183.154:3128 HTTP 47sec
Status: 107.7.159.178:3128 HTTP
Status: 109.104.144.42:8080 HTTP
lMilliseconds: 6
arg_max_timeout: 0
Status: 109.175.6.192:8080 HTTP 6sec
Status: 109.185.116.199:8080 HTTP
